<?xml version="1.0" encoding="utf-8"?>
<!-- Generator: Adobe Illustrator 22.1.0, SVG Export Plug-In . SVG Version: 6.00 Build 0)  -->
<svg version="1.1" id="Layer_1" xmlns="http://www.w3.org/2000/svg" xmlns:xlink="http://www.w3.org/1999/xlink" x="0px" y="0px"
	 viewBox="0 0 68 68" style="enable-background:new 0 0 68 68;" xml:space="preserve">
<style type="text/css">
	.st0{fill:url(#SVGID_1_);}
	.st1{fill:#FFFFFF;}
	.st2{clip-path:url(#SVGID_3_);fill:#FCC5D4;}
	.st3{clip-path:url(#SVGID_3_);fill:#FBC5D4;}
	.st4{clip-path:url(#SVGID_3_);fill:#FAC5D4;}
	.st5{clip-path:url(#SVGID_3_);fill:#F9C5D5;}
	.st6{clip-path:url(#SVGID_3_);fill:#F8C5D5;}
	.st7{clip-path:url(#SVGID_3_);fill:#F7C6D5;}
	.st8{clip-path:url(#SVGID_3_);fill:#F6C6D5;}
	.st9{clip-path:url(#SVGID_3_);fill:#F5C6D6;}
	.st10{clip-path:url(#SVGID_3_);fill:#F4C6D6;}
	.st11{clip-path:url(#SVGID_3_);fill:#F3C6D6;}
	.st12{clip-path:url(#SVGID_3_);fill:#F2C6D6;}
	.st13{clip-path:url(#SVGID_3_);fill:#F1C6D7;}
	.st14{clip-path:url(#SVGID_3_);fill:#F0C6D7;}
	.st15{clip-path:url(#SVGID_3_);fill:#EFC6D7;}
	.st16{clip-path:url(#SVGID_3_);fill:#EEC6D7;}
	.st17{clip-path:url(#SVGID_3_);fill:#EDC7D8;}
	.st18{clip-path:url(#SVGID_3_);fill:#ECC7D8;}
	.st19{clip-path:url(#SVGID_3_);fill:#EBC7D8;}
	.st20{clip-path:url(#SVGID_3_);fill:#EAC7D8;}
	.st21{clip-path:url(#SVGID_3_);fill:#E9C7D8;}
	.st22{clip-path:url(#SVGID_3_);fill:#E8C7D9;}
	.st23{clip-path:url(#SVGID_3_);fill:#E7C7D9;}
	.st24{clip-path:url(#SVGID_3_);fill:#E6C7D9;}
	.st25{clip-path:url(#SVGID_3_);fill:#E5C7D9;}
	.st26{clip-path:url(#SVGID_3_);fill:#E3C8DA;}
	.st27{clip-path:url(#SVGID_3_);fill:#E2C8DA;}
	.st28{clip-path:url(#SVGID_3_);fill:#E1C8DA;}
	.st29{clip-path:url(#SVGID_3_);fill:#E0C8DA;}
	.st30{clip-path:url(#SVGID_3_);fill:#DFC8DB;}
	.st31{clip-path:url(#SVGID_3_);fill:#DEC8DB;}
	.st32{clip-path:url(#SVGID_3_);fill:#DDC8DB;}
	.st33{clip-path:url(#SVGID_3_);fill:#DCC8DB;}
	.st34{clip-path:url(#SVGID_3_);fill:#DBC8DB;}
	.st35{clip-path:url(#SVGID_3_);fill:#DAC9DC;}
	.st36{clip-path:url(#SVGID_3_);fill:#D9C9DC;}
	.st37{clip-path:url(#SVGID_3_);fill:#D8C9DC;}
	.st38{clip-path:url(#SVGID_3_);fill:#D7C9DC;}
	.st39{clip-path:url(#SVGID_3_);fill:#D6C9DD;}
	.st40{clip-path:url(#SVGID_3_);fill:#D5C9DD;}
	.st41{clip-path:url(#SVGID_3_);fill:#D4C9DD;}
	.st42{clip-path:url(#SVGID_3_);fill:#D3C9DD;}
	.st43{clip-path:url(#SVGID_3_);fill:#D2C9DE;}
	.st44{clip-path:url(#SVGID_3_);fill:#D1C9DE;}
	.st45{clip-path:url(#SVGID_3_);fill:#D0CADE;}
	.st46{clip-path:url(#SVGID_3_);fill:#CFCADE;}
	.st47{clip-path:url(#SVGID_3_);fill:#CECADF;}
	.st48{clip-path:url(#SVGID_3_);fill:#CDCADF;}
	.st49{clip-path:url(#SVGID_3_);fill:#CCCADF;}
</style>
<g>
	<g>
		<defs>
			<circle id="SVGID_2_" cx="34" cy="34" r="33.5"/>
		</defs>
		<clipPath id="SVGID_1_">
			<use xlink:href="#SVGID_2_"  style="overflow:visible;"/>
		</clipPath>
		<polygon style="clip-path:url(#SVGID_1_);fill:#FCC5D4;" points="21.8,0.5 0.5,18.4 0.5,0.5 		"/>
		<polygon style="clip-path:url(#SVGID_1_);fill:#FCC5D4;" points="24,0.5 0.5,20.2 0.5,18.4 21.8,0.5 		"/>
		<polygon style="clip-path:url(#SVGID_1_);fill:#FBC5D4;" points="26.2,0.5 0.5,22 0.5,20.2 24,0.5 		"/>
		<polygon style="clip-path:url(#SVGID_1_);fill:#FAC5D4;" points="28.3,0.5 0.5,23.9 0.5,22 26.2,0.5 		"/>
		<polygon style="clip-path:url(#SVGID_1_);fill:#F9C5D5;" points="30.5,0.5 0.5,25.7 0.5,23.9 28.3,0.5 		"/>
		<polygon style="clip-path:url(#SVGID_1_);fill:#F8C5D5;" points="32.7,0.5 0.5,27.5 0.5,25.7 30.5,0.5 		"/>
		<polygon style="clip-path:url(#SVGID_1_);fill:#F7C6D5;" points="34.8,0.5 0.5,29.3 0.5,27.5 32.7,0.5 		"/>
		<polygon style="clip-path:url(#SVGID_1_);fill:#F6C6D5;" points="37,0.5 0.5,31.1 0.5,29.3 34.8,0.5 		"/>
		<polygon style="clip-path:url(#SVGID_1_);fill:#F5C6D6;" points="39.2,0.5 0.5,33 0.5,31.1 37,0.5 		"/>
		<polygon style="clip-path:url(#SVGID_1_);fill:#F4C6D6;" points="41.4,0.5 0.5,34.8 0.5,33 39.2,0.5 		"/>
		<polygon style="clip-path:url(#SVGID_1_);fill:#F3C6D6;" points="43.5,0.5 0.5,36.6 0.5,34.8 41.4,0.5 		"/>
		<polygon style="clip-path:url(#SVGID_1_);fill:#F2C6D6;" points="45.7,0.5 0.5,38.4 0.5,36.6 43.5,0.5 		"/>
		<polygon style="clip-path:url(#SVGID_1_);fill:#F1C6D7;" points="47.9,0.5 0.5,40.2 0.5,38.4 45.7,0.5 		"/>
		<polygon style="clip-path:url(#SVGID_1_);fill:#F0C6D7;" points="50,0.5 0.5,42.1 0.5,40.2 47.9,0.5 		"/>
		<polygon style="clip-path:url(#SVGID_1_);fill:#EFC6D7;" points="52.2,0.5 0.5,43.9 0.5,42.1 50,0.5 		"/>
		<polygon style="clip-path:url(#SVGID_1_);fill:#EEC6D7;" points="54.4,0.5 0.5,45.7 0.5,43.9 52.2,0.5 		"/>
		<polygon style="clip-path:url(#SVGID_1_);fill:#EDC7D8;" points="56.5,0.5 0.5,47.5 0.5,45.7 54.4,0.5 		"/>
		<polygon style="clip-path:url(#SVGID_1_);fill:#ECC7D8;" points="57.5,0.5 58,1.1 0.5,49.3 0.5,47.5 56.5,0.5 		"/>
		<polygon style="clip-path:url(#SVGID_1_);fill:#EBC7D8;" points="58,1.1 58.9,2.2 0.5,51.2 0.5,49.3 		"/>
		<polygon style="clip-path:url(#SVGID_1_);fill:#EAC7D8;" points="58.9,2.2 59.8,3.2 0.5,53 0.5,51.2 		"/>
		<polygon style="clip-path:url(#SVGID_1_);fill:#E9C7D8;" points="59.8,3.2 60.7,4.3 0.5,54.8 0.5,53 		"/>
		<polygon style="clip-path:url(#SVGID_1_);fill:#E8C7D9;" points="60.7,4.3 61.6,5.4 1,56.2 0.5,55.6 0.5,54.8 		"/>
		
			<rect x="-7.8" y="30.6" transform="matrix(0.766 -0.6428 0.6428 0.766 -12.7046 27.7351)" style="clip-path:url(#SVGID_1_);fill:#E7C7D9;" width="79.1" height="1.4"/>
		
			<rect x="-6.9" y="31.7" transform="matrix(0.766 -0.6428 0.6428 0.766 -13.1816 28.5612)" style="clip-path:url(#SVGID_1_);fill:#E6C7D9;" width="79.1" height="1.4"/>
		
			<rect x="-6" y="32.8" transform="matrix(0.766 -0.6428 0.6428 0.766 -13.6586 29.3873)" style="clip-path:url(#SVGID_1_);fill:#E5C7D9;" width="79.1" height="1.4"/>
		
			<rect x="-5.1" y="33.8" transform="matrix(0.766 -0.6428 0.6428 0.766 -14.1355 30.2135)" style="clip-path:url(#SVGID_1_);fill:#E3C8DA;" width="79.1" height="1.4"/>
		
			<rect x="-4.2" y="34.9" transform="matrix(0.766 -0.6428 0.6428 0.766 -14.6125 31.0396)" style="clip-path:url(#SVGID_1_);fill:#E2C8DA;" width="79.1" height="1.4"/>
		
			<rect x="-3.3" y="36" transform="matrix(0.766 -0.6428 0.6428 0.766 -15.0895 31.8657)" style="clip-path:url(#SVGID_1_);fill:#E1C8DA;" width="79.1" height="1.4"/>
		<polygon style="clip-path:url(#SVGID_1_);fill:#E0C8DA;" points="67,11.8 67.5,12.4 67.5,13.2 7.3,63.7 6.4,62.6 		"/>
		<polygon style="clip-path:url(#SVGID_1_);fill:#DFC8DB;" points="67.5,15 8.2,64.8 7.3,63.7 67.5,13.2 		"/>
		<polygon style="clip-path:url(#SVGID_1_);fill:#DEC8DB;" points="67.5,16.8 9.1,65.8 8.2,64.8 67.5,15 		"/>
		<polygon style="clip-path:url(#SVGID_1_);fill:#DDC8DB;" points="67.5,18.6 10,66.9 9.1,65.8 67.5,16.8 		"/>
		<polygon style="clip-path:url(#SVGID_1_);fill:#DCC8DB;" points="67.5,20.4 11.4,67.5 10.5,67.5 10,66.9 67.5,18.6 		"/>
		<polygon style="clip-path:url(#SVGID_1_);fill:#DBC8DB;" points="67.5,22.3 13.6,67.5 11.4,67.5 67.5,20.4 		"/>
		<polygon style="clip-path:url(#SVGID_1_);fill:#DAC9DC;" points="67.5,24.1 15.7,67.5 13.6,67.5 67.5,22.3 		"/>
		<polygon style="clip-path:url(#SVGID_1_);fill:#D9C9DC;" points="67.5,25.9 17.9,67.5 15.7,67.5 67.5,24.1 		"/>
		<polygon style="clip-path:url(#SVGID_1_);fill:#D8C9DC;" points="67.5,27.7 20.1,67.5 17.9,67.5 67.5,25.9 		"/>
		<polygon style="clip-path:url(#SVGID_1_);fill:#D7C9DC;" points="67.5,29.5 22.3,67.5 20.1,67.5 67.5,27.7 		"/>
		<polygon style="clip-path:url(#SVGID_1_);fill:#D6C9DD;" points="67.5,31.4 24.4,67.5 22.3,67.5 67.5,29.5 		"/>
		<polygon style="clip-path:url(#SVGID_1_);fill:#D5C9DD;" points="67.5,33.2 26.6,67.5 24.4,67.5 67.5,31.4 		"/>
		<polygon style="clip-path:url(#SVGID_1_);fill:#D4C9DD;" points="67.5,35 28.8,67.5 26.6,67.5 67.5,33.2 		"/>
		<polygon style="clip-path:url(#SVGID_1_);fill:#D3C9DD;" points="67.5,36.8 30.9,67.5 28.8,67.5 67.5,35 		"/>
		<polygon style="clip-path:url(#SVGID_1_);fill:#D2C9DE;" points="67.5,38.6 33.1,67.5 30.9,67.5 67.5,36.8 		"/>
		<polygon style="clip-path:url(#SVGID_1_);fill:#D1C9DE;" points="67.5,40.5 35.3,67.5 33.1,67.5 67.5,38.6 		"/>
		<polygon style="clip-path:url(#SVGID_1_);fill:#D0CADE;" points="67.5,42.3 37.4,67.5 35.3,67.5 67.5,40.5 		"/>
		<polygon style="clip-path:url(#SVGID_1_);fill:#CFCADE;" points="67.5,44.1 39.6,67.5 37.4,67.5 67.5,42.3 		"/>
		<polygon style="clip-path:url(#SVGID_1_);fill:#CECADF;" points="67.5,45.9 41.8,67.5 39.6,67.5 67.5,44.1 		"/>
		<polygon style="clip-path:url(#SVGID_1_);fill:#CDCADF;" points="67.5,47.7 44,67.5 41.8,67.5 67.5,45.9 		"/>
		<polygon style="clip-path:url(#SVGID_1_);fill:#CCCADF;" points="67.5,49.6 46.1,67.5 44,67.5 67.5,47.7 		"/>
		<polygon style="clip-path:url(#SVGID_1_);fill:#CCCADF;" points="46.1,67.5 67.5,49.6 67.5,67.5 		"/>
	</g>
</g>
<g>
	<path class="st1" d="M17.4,49.2l0.6,0.3c-0.3,0.5-1,0.9-1.9,0.9c-1.3,0-2.1-0.7-2.1-1.9s0.8-1.9,2.2-1.9c0.9,0,1.5,0.4,1.8,0.9
		l-0.6,0.3c-0.3-0.4-0.7-0.6-1.3-0.6c-0.9,0-1.5,0.5-1.5,1.3s0.6,1.3,1.5,1.3C16.7,49.8,17.2,49.6,17.4,49.2z"/>
	<path class="st1" d="M22.4,49.7v0.5h-3.2v-3.5h0.6v3H22.4z"/>
	<path class="st1" d="M26.4,49.4h-2.2l-0.4,0.8H23l1.9-3.5h0.7l1.9,3.5h-0.7L26.4,49.4z M26.1,48.9l-0.9-1.6l-0.9,1.6H26.1z"/>
	<path class="st1" d="M28.3,46.7l1.3,1.8l1.3-1.8h0.7L29.9,49v1.2h-0.6V49l-1.7-2.3H28.3z"/>
	<path class="st1" d="M39.1,46.7v3.5h-0.6v-2.7l-1.7,2h0l-1.7-2v2.7h-0.6v-3.5h0.7l1.6,2l1.6-2H39.1z"/>
	<path class="st1" d="M43.5,49.4h-2.2l-0.4,0.8h-0.7l1.9-3.5h0.7l1.9,3.5h-0.7L43.5,49.4z M43.2,48.9l-0.9-1.6l-0.9,1.6H43.2z"/>
	<path class="st1" d="M49.1,49.2c0,0.7-0.7,1.1-1.8,1.1c-0.8,0-1.5-0.2-2.1-0.7l0.4-0.4c0.5,0.4,1,0.6,1.7,0.6
		c0.8,0,1.2-0.2,1.2-0.6c0-0.4-0.4-0.5-1.3-0.5c-1-0.1-1.9-0.3-1.9-1c0-0.7,0.8-1.1,1.8-1.1c0.8,0,1.4,0.2,1.8,0.6l-0.4,0.4
		c-0.4-0.3-0.9-0.5-1.4-0.5c-0.6,0-1.2,0.1-1.2,0.5c0,0.4,0.6,0.4,1.4,0.5C48.4,48.3,49.1,48.5,49.1,49.2z"/>
	<path class="st1" d="M53.5,50.2L52,48.5l-1,0.8v0.9h-0.6v-3.5H51v1.9l2.4-1.9h0.8l-1.7,1.4l1.8,2.1H53.5z"/>
	<path class="st1" d="M23.6,55.3c0,0.6-0.5,1-1.3,1h-2.5v-3.5h2.4c0.8,0,1.3,0.3,1.3,0.9c0,0.4-0.2,0.8-0.8,0.8
		C23.2,54.5,23.6,54.7,23.6,55.3z M20.3,54.2H22c0.5,0,0.8-0.1,0.8-0.5s-0.3-0.5-0.8-0.5h-1.7V54.2z M23,55.2c0-0.4-0.3-0.5-0.8-0.5
		h-1.8v1h1.8C22.7,55.7,23,55.6,23,55.2z"/>
	<path class="st1" d="M28.6,52.7v1.9c0,1-0.7,1.8-1.9,1.8c-1.2,0-1.9-0.7-1.9-1.8v-1.9h0.6v1.8c0,0.8,0.5,1.3,1.3,1.3
		c0.8,0,1.3-0.5,1.3-1.3v-1.8H28.6z"/>
	<path class="st1" d="M34,52.7v3.5h-0.5l-2.7-2.8v2.8h-0.6v-3.5h0.6l2.6,2.7v-2.7H34z"/>
	<path class="st1" d="M39.4,54.5c0,1.1-0.8,1.8-2.1,1.8h-1.8v-3.5h1.8C38.6,52.7,39.4,53.4,39.4,54.5z M38.8,54.5
		c0-0.8-0.6-1.2-1.6-1.2h-1.1v2.5h1.1C38.2,55.7,38.8,55.3,38.8,54.5z"/>
	<path class="st1" d="M43.9,55.7v0.5h-3.2v-3.5h0.6v3H43.9z"/>
	<path class="st1" d="M48.5,55.7v0.5h-3.5v-3.5h3.4v0.5h-2.8v0.9H48v0.5h-2.4v1H48.5z"/>
</g>
<g>
	<path class="st1" d="M48.5,11.5c0.1,0.7,0.1,1.3,0.1,1.9c0.2,4.2,0,8.4-1,12.6c-0.6,2.6-1.5,5.1-3,7.4c-2.1,3.2-5,5.1-8.7,5.9
		c-2.2,0.5-4.4,0.5-6.6,0.2c-1.5-0.2-3-0.5-4.4-1c-0.1,0-0.3,0-0.4,0c-1.3,0.6-2.6,1.2-3.9,1.9c-0.4,0.2-0.9,0-1.1-0.4
		c-0.2-0.4-0.1-0.9,0.3-1.1c0.9-0.4,1.7-0.8,2.6-1.3c0.4-0.2,0.9-0.5,1.3-0.7c0.2-0.1,0.2-0.2,0.2-0.4c-0.5-2-0.7-4.1-0.7-6.1
		c0-2.6,0.5-5.1,1.6-7.4c0.9-1.7,2.1-3.1,3.5-4.4c2.9-2.7,6.3-4.4,10-5.6c2.3-0.7,4.6-1.2,7-1.4C46.5,11.6,47.5,11.6,48.5,11.5z
		 M47,13.3c-0.2,0-0.2,0-0.3,0c-2.8,0.1-5.6,0.7-8.3,1.6c-3.8,1.3-7.1,3.2-9.8,6.1c-2.1,2.2-3.2,4.9-3.4,7.9
		c-0.1,1.6-0.1,3.3,0.1,4.9c0.1,0.7,0.2,1.4,0.4,2.2c0.1,0,0.1-0.1,0.2-0.1c2.8-1.7,5.2-3.8,7.2-6.4c1.5-1.9,2.9-3.8,4.2-5.8
		c0.1-0.2,0.3-0.3,0.5-0.4c0.3-0.1,0.7,0,0.9,0.4c0.2,0.3,0.2,0.7-0.1,1.1c-1.3,2-2.6,3.9-4,5.7c-1.2,1.5-2.4,2.9-3.8,4.1
		c-1.1,1-2.3,1.8-3.6,2.6c-0.1,0.1-0.2,0.1-0.3,0.2c0.8,0.1,1.5,0.3,2.2,0.4c2.2,0.3,4.3,0.4,6.5-0.1c3.4-0.7,6-2.5,7.9-5.4
		c1.6-2.6,2.5-5.5,3-8.5c0.4-2,0.5-4.1,0.6-6.1C47,16.2,47,14.7,47,13.3z"/>
</g>
</svg>
